<?xml version="1.0" standalone="no"?>
<!DOCTYPE svg PUBLIC "-//W3C//DTD SVG 20010904//EN"
 "http://www.w3.org/TR/2001/REC-SVG-20010904/DTD/svg10.dtd">
<svg version="1.0" xmlns="http://www.w3.org/2000/svg"
 width="261.000000pt" height="261.000000pt" viewBox="0 0 261.000000 261.000000"
 preserveAspectRatio="xMidYMid meet">
<metadata>
Created by potrace 1.14, written by Peter Selinger 2001-2017
</metadata>
<g transform="translate(0.000000,261.000000) scale(0.100000,-0.100000)"
fill="#000000" stroke="none">
<path d="M1200 1758 c-19 -5 -63 -22 -96 -39 -163 -79 -256 -266 -247 -492 3
-95 15 -142 55 -225 73 -152 228 -243 413 -244 131 -1 225 34 325 121 l51 44
-66 67 -67 68 -27 -27 c-67 -69 -185 -105 -263 -82 -96 29 -155 94 -184 204
l-12 47 56 1 c32 0 173 0 314 0 l257 0 5 27 c11 52 -2 197 -24 261 -61 181
-196 278 -385 278 -38 0 -86 -4 -105 -9z m179 -186 c18 -8 46 -33 61 -54 27
-37 33 -54 44 -119 l4 -26 -191 0 c-112 0 -195 4 -198 10 -14 20 26 112 67
153 61 61 133 74 213 36z"/>
</g>
</svg>
